<?xml version="1.0" encoding="utf-8"?>
<!DOCTYPE eagle SYSTEM "eagle.dtd">
<eagle version="9.6.2">
<drawing>
<settings>
<setting alwaysvectorfont="no"/>
<setting keepoldvectorfont="yes"/>
<setting verticaltext="up"/>
</settings>
<grid distance="0.1" unitdist="inch" unit="inch" style="lines" multiple="1" display="yes" altdistance="0.01" altunitdist="inch" altunit="inch"/>
<layers>
<layer number="1" name="Top" color="4" fill="1" visible="no" active="no"/>
<layer number="2" name="Route2" color="1" fill="3" visible="no" active="no"/>
<layer number="3" name="Route3" color="4" fill="3" visible="no" active="no"/>
<layer number="4" name="Route4" color="1" fill="4" visible="no" active="no"/>
<layer number="5" name="Route5" color="4" fill="4" visible="no" active="no"/>
<layer number="6" name="Route6" color="1" fill="8" visible="no" active="no"/>
<layer number="7" name="Route7" color="4" fill="8" visible="no" active="no"/>
<layer number="8" name="Route8" color="1" fill="2" visible="no" active="no"/>
<layer number="9" name="Route9" color="4" fill="2" visible="no" active="no"/>
<layer number="10" name="Route10" color="1" fill="7" visible="no" active="no"/>
<layer number="11" name="Route11" color="4" fill="7" visible="no" active="no"/>
<layer number="12" name="Route12" color="1" fill="5" visible="no" active="no"/>
<layer number="13" name="Route13" color="4" fill="5" visible="no" active="no"/>
<layer number="14" name="Route14" color="1" fill="6" visible="no" active="no"/>
<layer number="15" name="Route15" color="4" fill="6" visible="no" active="no"/>
<layer number="16" name="Bottom" color="1" fill="1" visible="no" active="no"/>
<layer number="17" name="Pads" color="2" fill="1" visible="no" active="no"/>
<layer number="18" name="Vias" color="2" fill="1" visible="no" active="no"/>
<layer number="19" name="Unrouted" color="6" fill="1" visible="no" active="no"/>
<layer number="20" name="Dimension" color="15" fill="1" visible="no" active="no"/>
<layer number="21" name="tPlace" color="7" fill="1" visible="no" active="no"/>
<layer number="22" name="bPlace" color="7" fill="1" visible="no" active="no"/>
<layer number="23" name="tOrigins" color="15" fill="1" visible="no" active="no"/>
<layer number="24" name="bOrigins" color="15" fill="1" visible="no" active="no"/>
<layer number="25" name="tNames" color="7" fill="1" visible="no" active="no"/>
<layer number="26" name="bNames" color="7" fill="1" visible="no" active="no"/>
<layer number="27" name="tValues" color="7" fill="1" visible="no" active="no"/>
<layer number="28" name="bValues" color="7" fill="1" visible="no" active="no"/>
<layer number="29" name="tStop" color="7" fill="3" visible="no" active="no"/>
<layer number="30" name="bStop" color="7" fill="6" visible="no" active="no"/>
<layer number="31" name="tCream" color="7" fill="4" visible="no" active="no"/>
<layer number="32" name="bCream" color="7" fill="5" visible="no" active="no"/>
<layer number="33" name="tFinish" color="6" fill="3" visible="no" active="no"/>
<layer number="34" name="bFinish" color="6" fill="6" visible="no" active="no"/>
<layer number="35" name="tGlue" color="7" fill="4" visible="no" active="no"/>
<layer number="36" name="bGlue" color="7" fill="5" visible="no" active="no"/>
<layer number="37" name="tTest" color="7" fill="1" visible="no" active="no"/>
<layer number="38" name="bTest" color="7" fill="1" visible="no" active="no"/>
<layer number="39" name="tKeepout" color="4" fill="11" visible="no" active="no"/>
<layer number="40" name="bKeepout" color="1" fill="11" visible="no" active="no"/>
<layer number="41" name="tRestrict" color="4" fill="10" visible="no" active="no"/>
<layer number="42" name="bRestrict" color="1" fill="10" visible="no" active="no"/>
<layer number="43" name="vRestrict" color="2" fill="10" visible="no" active="no"/>
<layer number="44" name="Drills" color="7" fill="1" visible="no" active="no"/>
<layer number="45" name="Holes" color="7" fill="1" visible="no" active="no"/>
<layer number="46" name="Milling" color="3" fill="1" visible="no" active="no"/>
<layer number="47" name="Measures" color="7" fill="1" visible="no" active="no"/>
<layer number="48" name="Document" color="7" fill="1" visible="no" active="no"/>
<layer number="49" name="Reference" color="7" fill="1" visible="no" active="no"/>
<layer number="50" name="dxf" color="7" fill="1" visible="no" active="no"/>
<layer number="51" name="tDocu" color="7" fill="1" visible="no" active="no"/>
<layer number="52" name="bDocu" color="7" fill="1" visible="no" active="no"/>
<layer number="53" name="tGND_GNDA" color="7" fill="9" visible="no" active="no"/>
<layer number="54" name="bGND_GNDA" color="1" fill="9" visible="no" active="no"/>
<layer number="56" name="wert" color="7" fill="1" visible="no" active="no"/>
<layer number="57" name="tCAD" color="7" fill="1" visible="no" active="no"/>
<layer number="59" name="tCarbon" color="7" fill="1" visible="no" active="no"/>
<layer number="60" name="bCarbon" color="7" fill="1" visible="no" active="no"/>
<layer number="88" name="SimResults" color="9" fill="1" visible="yes" active="yes"/>
<layer number="89" name="SimProbes" color="9" fill="1" visible="yes" active="yes"/>
<layer number="90" name="Modules" color="5" fill="1" visible="yes" active="yes"/>
<layer number="91" name="Nets" color="2" fill="1" visible="yes" active="yes"/>
<layer number="92" name="Busses" color="1" fill="1" visible="yes" active="yes"/>
<layer number="93" name="Pins" color="2" fill="1" visible="no" active="yes"/>
<layer number="94" name="Symbols" color="4" fill="1" visible="yes" active="yes"/>
<layer number="95" name="Names" color="7" fill="1" visible="yes" active="yes"/>
<layer number="96" name="Values" color="7" fill="1" visible="yes" active="yes"/>
<layer number="97" name="Info" color="2" fill="1" visible="yes" active="yes"/>
<layer number="98" name="Guide" color="6" fill="1" visible="yes" active="yes"/>
<layer number="99" name="SpiceOrder" color="7" fill="1" visible="yes" active="yes"/>
<layer number="100" name="Muster" color="7" fill="1" visible="yes" active="yes"/>
<layer number="101" name="Patch_Top" color="7" fill="1" visible="yes" active="yes"/>
<layer number="102" name="Mittellin" color="7" fill="1" visible="yes" active="yes"/>
<layer number="103" name="Stiffner" color="7" fill="1" visible="yes" active="yes"/>
<layer number="104" name="Name" color="7" fill="1" visible="yes" active="yes"/>
<layer number="105" name="Beschreib" color="7" fill="1" visible="yes" active="yes"/>
<layer number="106" name="BGA-Top" color="7" fill="1" visible="yes" active="yes"/>
<layer number="107" name="BD-Top" color="7" fill="1" visible="yes" active="yes"/>
<layer number="108" name="tBridges" color="7" fill="1" visible="yes" active="yes"/>
<layer number="109" name="tBPL" color="7" fill="1" visible="yes" active="yes"/>
<layer number="110" name="bBPL" color="7" fill="1" visible="yes" active="yes"/>
<layer number="111" name="MPL" color="7" fill="1" visible="yes" active="yes"/>
<layer number="112" name="tSilk" color="7" fill="1" visible="yes" active="yes"/>
<layer number="113" name="ReferenceLS" color="7" fill="1" visible="yes" active="yes"/>
<layer number="114" name="tPlaceRed" color="7" fill="1" visible="yes" active="yes"/>
<layer number="115" name="FRNTMAAT2" color="7" fill="1" visible="yes" active="yes"/>
<layer number="116" name="Patch_BOT" color="7" fill="1" visible="yes" active="yes"/>
<layer number="117" name="BACKMAAT1" color="7" fill="1" visible="yes" active="yes"/>
<layer number="118" name="Rect_Pads" color="7" fill="1" visible="yes" active="yes"/>
<layer number="119" name="KAP_TEKEN" color="7" fill="1" visible="yes" active="yes"/>
<layer number="120" name="KAP_MAAT1" color="7" fill="1" visible="yes" active="yes"/>
<layer number="121" name="sName" color="7" fill="1" visible="yes" active="yes"/>
<layer number="122" name="_bPlace" color="7" fill="1" visible="yes" active="yes"/>
<layer number="123" name="tTestmark" color="7" fill="1" visible="yes" active="yes"/>
<layer number="124" name="bTestmark" color="7" fill="1" visible="yes" active="yes"/>
<layer number="125" name="_tNames" color="7" fill="1" visible="yes" active="yes"/>
<layer number="126" name="_bNames" color="7" fill="1" visible="yes" active="yes"/>
<layer number="127" name="_tValues" color="7" fill="1" visible="yes" active="yes"/>
<layer number="128" name="_bValues" color="7" fill="1" visible="yes" active="yes"/>
<layer number="129" name="Mask" color="7" fill="1" visible="yes" active="yes"/>
<layer number="130" name="SMDSTROOK" color="7" fill="1" visible="yes" active="yes"/>
<layer number="131" name="tAdjust" color="7" fill="1" visible="yes" active="yes"/>
<layer number="132" name="bAdjust" color="7" fill="1" visible="yes" active="yes"/>
<layer number="133" name="bottom_silk" color="7" fill="1" visible="yes" active="yes"/>
<layer number="134" name="PlaneGlobals" color="7" fill="1" visible="yes" active="yes"/>
<layer number="135" name="PlaneGlobals_InnerLayers" color="7" fill="1" visible="yes" active="yes"/>
<layer number="144" name="Drill_legend" color="7" fill="1" visible="yes" active="yes"/>
<layer number="150" name="Notes" color="7" fill="1" visible="yes" active="yes"/>
<layer number="151" name="HeatSink" color="7" fill="1" visible="yes" active="yes"/>
<layer number="152" name="_bDocu" color="7" fill="1" visible="yes" active="yes"/>
<layer number="153" name="FabDoc1" color="7" fill="1" visible="yes" active="yes"/>
<layer number="154" name="FabDoc2" color="7" fill="1" visible="yes" active="yes"/>
<layer number="155" name="FabDoc3" color="7" fill="1" visible="yes" active="yes"/>
<layer number="199" name="Contour" color="7" fill="1" visible="yes" active="yes"/>
<layer number="200" name="200bmp" color="7" fill="1" visible="yes" active="yes"/>
<layer number="201" name="201bmp" color="7" fill="1" visible="yes" active="yes"/>
<layer number="202" name="202bmp" color="7" fill="1" visible="yes" active="yes"/>
<layer number="203" name="203bmp" color="7" fill="1" visible="yes" active="yes"/>
<layer number="204" name="204bmp" color="7" fill="1" visible="yes" active="yes"/>
<layer number="205" name="205bmp" color="7" fill="1" visible="yes" active="yes"/>
<layer number="206" name="206bmp" color="7" fill="1" visible="yes" active="yes"/>
<layer number="207" name="207bmp" color="7" fill="1" visible="yes" active="yes"/>
<layer number="208" name="208bmp" color="7" fill="1" visible="yes" active="yes"/>
<layer number="209" name="209bmp" color="7" fill="1" visible="yes" active="yes"/>
<layer number="210" name="210bmp" color="7" fill="1" visible="yes" active="yes"/>
<layer number="211" name="211bmp" color="7" fill="1" visible="yes" active="yes"/>
<layer number="212" name="212bmp" color="7" fill="1" visible="yes" active="yes"/>
<layer number="213" name="213bmp" color="7" fill="1" visible="yes" active="yes"/>
<layer number="214" name="214bmp" color="7" fill="1" visible="yes" active="yes"/>
<layer number="215" name="215bmp" color="7" fill="1" visible="yes" active="yes"/>
<layer number="216" name="216bmp" color="7" fill="1" visible="yes" active="yes"/>
<layer number="217" name="217bmp" color="7" fill="1" visible="yes" active="yes"/>
<layer number="218" name="218bmp" color="7" fill="1" visible="yes" active="yes"/>
<layer number="219" name="219bmp" color="7" fill="1" visible="yes" active="yes"/>
<layer number="220" name="220bmp" color="7" fill="1" visible="yes" active="yes"/>
<layer number="221" name="221bmp" color="7" fill="1" visible="yes" active="yes"/>
<layer number="222" name="222bmp" color="7" fill="1" visible="yes" active="yes"/>
<layer number="223" name="223bmp" color="7" fill="1" visible="yes" active="yes"/>
<layer number="224" name="224bmp" color="7" fill="1" visible="yes" active="yes"/>
<layer number="225" name="225bmp" color="7" fill="1" visible="yes" active="yes"/>
<layer number="226" name="226bmp" color="7" fill="1" visible="yes" active="yes"/>
<layer number="227" name="227bmp" color="7" fill="1" visible="yes" active="yes"/>
<layer number="228" name="228bmp" color="7" fill="1" visible="yes" active="yes"/>
<layer number="229" name="229bmp" color="7" fill="1" visible="yes" active="yes"/>
<layer number="230" name="230bmp" color="7" fill="1" visible="yes" active="yes"/>
<layer number="231" name="Eagle3D_PG1" color="7" fill="1" visible="yes" active="yes"/>
<layer number="232" name="Eagle3D_PG2" color="7" fill="1" visible="yes" active="yes"/>
<layer number="233" name="Eagle3D_PG3" color="7" fill="1" visible="yes" active="yes"/>
<layer number="248" name="Housing" color="7" fill="1" visible="yes" active="yes"/>
<layer number="249" name="Edge" color="7" fill="1" visible="yes" active="yes"/>
<layer number="250" name="Descript" color="7" fill="1" visible="yes" active="yes"/>
<layer number="251" name="SMDround" color="7" fill="1" visible="yes" active="yes"/>
<layer number="254" name="cooling" color="7" fill="1" visible="yes" active="yes"/>
<layer number="255" name="routoute" color="7" fill="1" visible="yes" active="yes"/>
</layers>
<schematic xreflabel="%F%N" xrefpart="/%S.%C%R">
<libraries>
<library name="Eagle PCB Examples">
<description>Generated from &lt;b&gt;Eagle PCB Examples.sch&lt;/b&gt;&lt;p&gt;
by exp-lbrs.ulp</description>
<packages>
<package name="EXAMPLE_SLOT_EAGLE_2VIA">
<wire x1="0" y1="1.27" x2="0" y2="-1.27" width="0.9" layer="1"/>
<wire x1="0" y1="1.27" x2="0" y2="-1.27" width="1.1" layer="29"/>
<wire x1="0" y1="1.27" x2="0" y2="-1.27" width="0.9" layer="16"/>
<wire x1="0" y1="-1.27" x2="0" y2="1.27" width="1.1" layer="30"/>
<pad name="SLOT_BOTTOM_VIA" x="0" y="-1.27" drill="0.65" diameter="0.9"/>
<pad name="SLOT_TOP_VIA" x="0" y="1.27" drill="0.65" diameter="0.9"/>
<polygon width="0" layer="46">
<vertex x="0" y="-1.595" curve="-90"/>
<vertex x="-0.325" y="-1.27"/>
<vertex x="-0.325" y="1.27" curve="-90"/>
<vertex x="0" y="1.595" curve="-90"/>
<vertex x="0.325" y="1.27"/>
<vertex x="0.325" y="-1.27" curve="-90"/>
</polygon>
</package>
</packages>
<symbols>
<symbol name="FRAME_B_L">
<frame x1="0" y1="0" x2="431.8" y2="279.4" columns="9" rows="6" layer="94" border-bottom="no"/>
</symbol>
<symbol name="DOCFIELD">
<wire x1="0" y1="0" x2="71.12" y2="0" width="0.1016" layer="94"/>
<wire x1="101.6" y1="15.24" x2="87.63" y2="15.24" width="0.1016" layer="94"/>
<wire x1="0" y1="0" x2="0" y2="5.08" width="0.1016" layer="94"/>
<wire x1="0" y1="5.08" x2="71.12" y2="5.08" width="0.1016" layer="94"/>
<wire x1="0" y1="5.08" x2="0" y2="15.24" width="0.1016" layer="94"/>
<wire x1="101.6" y1="15.24" x2="101.6" y2="5.08" width="0.1016" layer="94"/>
<wire x1="71.12" y1="5.08" x2="71.12" y2="0" width="0.1016" layer="94"/>
<wire x1="71.12" y1="5.08" x2="87.63" y2="5.08" width="0.1016" layer="94"/>
<wire x1="71.12" y1="0" x2="101.6" y2="0" width="0.1016" layer="94"/>
<wire x1="87.63" y1="15.24" x2="87.63" y2="5.08" width="0.1016" layer="94"/>
<wire x1="87.63" y1="15.24" x2="0" y2="15.24" width="0.1016" layer="94"/>
<wire x1="87.63" y1="5.08" x2="101.6" y2="5.08" width="0.1016" layer="94"/>
<wire x1="101.6" y1="5.08" x2="101.6" y2="0" width="0.1016" layer="94"/>
<wire x1="0" y1="15.24" x2="0" y2="22.86" width="0.1016" layer="94"/>
<wire x1="101.6" y1="35.56" x2="0" y2="35.56" width="0.1016" layer="94"/>
<wire x1="101.6" y1="35.56" x2="101.6" y2="22.86" width="0.1016" layer="94"/>
<wire x1="0" y1="22.86" x2="101.6" y2="22.86" width="0.1016" layer="94"/>
<wire x1="0" y1="22.86" x2="0" y2="35.56" width="0.1016" layer="94"/>
<wire x1="101.6" y1="22.86" x2="101.6" y2="15.24" width="0.1016" layer="94"/>
<text x="1.27" y="1.27" size="2.54" layer="94">Date:</text>
<text x="12.7" y="1.27" size="2.54" layer="94">&gt;LAST_DATE_TIME</text>
<text x="72.39" y="1.27" size="2.54" layer="94">Sheet:</text>
<text x="86.36" y="1.27" size="2.54" layer="94">&gt;SHEET</text>
<text x="88.9" y="11.43" size="2.54" layer="94">REV:</text>
<text x="1.27" y="19.05" size="2.54" layer="94">TITLE:</text>
<text x="1.27" y="11.43" size="2.54" layer="94">Document Number:</text>
<text x="17.78" y="19.05" size="2.54" layer="94">&gt;DRAWING_NAME</text>
</symbol>
<symbol name="EXAMPLE_SLOT_EAGLE_2VIA">
<wire x1="0" y1="0" x2="0" y2="-5.08" width="0.254" layer="94"/>
<wire x1="0" y1="-5.08" x2="7.62" y2="-5.08" width="0.254" layer="94"/>
<wire x1="7.62" y1="-5.08" x2="7.62" y2="0" width="0.254" layer="94"/>
<wire x1="7.62" y1="0" x2="0" y2="0" width="0.254" layer="94"/>
<pin name="1" x="10.16" y="-2.54" visible="pin" length="middle" rot="R180"/>
<text x="0" y="0.762" size="1.778" layer="95">&gt;Name</text>
</symbol>
<symbol name="GND">
<wire x1="-1.27" y1="0" x2="1.27" y2="0" width="0.254" layer="94"/>
<wire x1="1.27" y1="0" x2="0" y2="-1.27" width="0.254" layer="94"/>
<wire x1="0" y1="-1.27" x2="-1.27" y2="0" width="0.254" layer="94"/>
<pin name="GND" x="0" y="2.54" visible="off" length="short" direction="sup" rot="R270"/>
<text x="-1.905" y="-3.175" size="1.778" layer="96">&gt;VALUE</text>
</symbol>
</symbols>
<devicesets>
<deviceset name="FRAME_B_L" prefix="FRAME" uservalue="yes">
<description>&lt;b&gt;FRAME&lt;/b&gt; B Size , 11 x 17 INCH, Landscape&lt;p&gt;</description>
<gates>
<gate name="G$1" symbol="FRAME_B_L" x="0" y="0" addlevel="always"/>
<gate name="G$2" symbol="DOCFIELD" x="325.12" y="0" addlevel="always"/>
</gates>
<devices>
<device name="">
<technologies>
<technology name=""/>
</technologies>
</device>
</devices>
</deviceset>
<deviceset name="EXAMPLE_SLOT_EAGLE_2VIA" prefix="SLOT">
<gates>
<gate name="G$1" symbol="EXAMPLE_SLOT_EAGLE_2VIA" x="0" y="0"/>
</gates>
<devices>
<device name="" package="EXAMPLE_SLOT_EAGLE_2VIA">
<connects>
<connect gate="G$1" pin="1" pad="SLOT_BOTTOM_VIA SLOT_TOP_VIA"/>
</connects>
<technologies>
<technology name=""/>
</technologies>
</device>
</devices>
</deviceset>
<deviceset name="GND" prefix="SUPPLY">
<description>&lt;b&gt;SUPPLY SYMBOL&lt;/b&gt;</description>
<gates>
<gate name="GND" symbol="GND" x="0" y="0"/>
</gates>
<devices>
<device name="">
<technologies>
<technology name=""/>
</technologies>
</device>
</devices>
</deviceset>
</devicesets>
</library>
</libraries>
<attributes>
</attributes>
<variantdefs>
</variantdefs>
<classes>
<class number="0" name="default" width="0" drill="0">
</class>
</classes>
<parts>
<part name="FRAME1" library="Eagle PCB Examples" deviceset="FRAME_B_L" device="" value="Frame1"/>
<part name="SUPPLY1" library="Eagle PCB Examples" deviceset="GND" device=""/>
<part name="SLOT1" library="Eagle PCB Examples" deviceset="EXAMPLE_SLOT_EAGLE_2VIA" device=""/>
<part name="SLOT2" library="Eagle PCB Examples" deviceset="EXAMPLE_SLOT_EAGLE_2VIA" device=""/>
<part name="SUPPLY2" library="Eagle PCB Examples" deviceset="GND" device=""/>
</parts>
<sheets>
<sheet>
<plain>
<text x="12.7" y="254" size="5.08" layer="91">Slot Example
See notes/HSS1218201809</text>
<wire x1="10.16" y1="269.24" x2="109.22" y2="269.24" width="0.1524" layer="97"/>
<wire x1="109.22" y1="269.24" x2="109.22" y2="226.06" width="0.1524" layer="97"/>
<wire x1="109.22" y1="226.06" x2="10.16" y2="226.06" width="0.1524" layer="97"/>
<wire x1="10.16" y1="226.06" x2="10.16" y2="269.24" width="0.1524" layer="97"/>
</plain>
<instances>
<instance part="FRAME1" gate="G$1" x="0" y="0" smashed="yes"/>
<instance part="FRAME1" gate="G$2" x="325.12" y="0" smashed="yes">
<attribute name="LAST_DATE_TIME" x="337.82" y="1.27" size="2.54" layer="94" font="vector"/>
<attribute name="SHEET" x="411.48" y="1.27" size="2.54" layer="94" font="vector"/>
<attribute name="DRAWING_NAME" x="342.9" y="19.05" size="2.54" layer="94" font="vector"/>
</instance>
<instance part="SUPPLY1" gate="GND" x="27.94" y="233.68" smashed="yes">
<attribute name="VALUE" x="26.035" y="230.505" size="1.778" layer="96"/>
</instance>
<instance part="SLOT1" gate="G$1" x="12.7" y="241.3" smashed="yes">
<attribute name="NAME" x="12.7" y="242.062" size="1.778" layer="95"/>
</instance>
<instance part="SLOT2" gate="G$1" x="40.64" y="241.3" smashed="yes">
<attribute name="NAME" x="40.64" y="242.062" size="1.778" layer="95"/>
</instance>
<instance part="SUPPLY2" gate="GND" x="55.88" y="233.68" smashed="yes">
<attribute name="VALUE" x="53.975" y="230.505" size="1.778" layer="96"/>
</instance>
</instances>
<busses>
</busses>
<nets>
<net name="GND" class="0">
<segment>
<wire x1="22.86" y1="238.76" x2="27.94" y2="238.76" width="0.1524" layer="91"/>
<pinref part="SLOT1" gate="G$1" pin="1"/>
<pinref part="SUPPLY1" gate="GND" pin="GND"/>
<wire x1="27.94" y1="236.22" x2="27.94" y2="238.76" width="0.1524" layer="91"/>
</segment>
<segment>
<pinref part="SLOT2" gate="G$1" pin="1"/>
<wire x1="50.8" y1="238.76" x2="55.88" y2="238.76" width="0.1524" layer="91"/>
<wire x1="55.88" y1="238.76" x2="55.88" y2="236.22" width="0.1524" layer="91"/>
<pinref part="SUPPLY2" gate="GND" pin="GND"/>
</segment>
</net>
</nets>
</sheet>
</sheets>
</schematic>
</drawing>
<compatibility>
<note version="6.3" minversion="6.2.2" severity="warning">
Since Version 6.2.2 text objects can contain more than one line,
which will not be processed correctly with this version.
</note>
</compatibility>
</eagle>
